[gd_scene load_steps=3 format=2]

[ext_resource path="res://Images/Nube 2.png" type="Texture" id=1]

[sub_resource type="Animation" id=1]
resource_name = "Cloud"
length = 5.0
loop = true
tracks/0/type = "value"
tracks/0/path = NodePath(".:position")
tracks/0/interp = 1
tracks/0/loop_wrap = true
tracks/0/imported = false
tracks/0/enabled = true
tracks/0/keys = {
"times": PoolRealArray( 0, 5 ),
"transitions": PoolRealArray( 1.62451, 5.09824 ),
"update": 0,
"values": [ Vector2( 1000, -100 ), Vector2( 900, 2050 ) ]
}

[node name="Cloud2" type="Sprite"]
position = Vector2( 912.8, 1774.8 )
scale = Vector2( 0.3, 0.3 )
texture = ExtResource( 1 )

[node name="AnimationPlayer" type="AnimationPlayer" parent="."]
autoplay = "Cloud"
playback_speed = 0.2
anims/Cloud = SubResource( 1 )
